{
  "results": [
    {
      "popularity": 235.701,
      "vote_count": 1384,
      "video": false,
      "poster_path": "/8WUVHemHFH2ZIP6NWkwlHWsyrEL.jpg",
      "id": 338762,
      "adult": false,
      "backdrop_path": "/ocUrMYbdjknu2TwzMHKT9PBBQRw.jpg",
      "original_language": "en",
      "original_title": "Bloodshot",
      "genre_ids": [28, 878],
      "title": "Bloodshot",
      "vote_average": 7.2,
      "overview": "After he and his wife are murdered, marine Ray Garrison is resurrected by a team of scientists. Enhanced with nanotechnology, he becomes a superhuman, biotech killing machine—'Bloodshot'. As Ray first trains with fellow super-soldiers, he cannot recall anything from his former life. But when his memories flood back and he remembers the man that killed both him and his wife, he breaks out of the facility to get revenge, only to discover that there's more to the conspiracy than he thought.",
      "release_date": "2020-03-05"
    },
    {
      "popularity": 184.724,
      "vote_count": 2095,
      "video": false,
      "poster_path": "/aQvJ5WPzZgYVDrxLX4R6cLJCEaQ.jpg",
      "id": 454626,
      "adult": false,
      "backdrop_path": "/stmYfCUGd8Iy6kAMBr6AmWqx8Bq.jpg",
      "original_language": "en",
      "original_title": "Sonic the Hedgehog",
      "genre_ids": [28, 35, 878, 10751],
      "title": "Sonic the Hedgehog",
      "vote_average": 7.4,
      "overview": "Based on the global blockbuster videogame franchise from Sega, Sonic the Hedgehog tells the story of the world’s speediest hedgehog as he embraces his new home on Earth. In this live-action adventure comedy, Sonic and his new best friend team up to defend the planet from the evil genius Dr. Robotnik and his plans for world domination.",
      "release_date": "2020-02-12"
    },
    {
      "popularity": 138.425,
      "vote_count": 991,
      "video": false,
      "poster_path": "/f4aul3FyD3jv3v4bul1IrkWZvzq.jpg",
      "id": 508439,
      "adult": false,
      "backdrop_path": "/xFxk4vnirOtUxpOEWgA1MCRfy6J.jpg",
      "original_language": "en",
      "original_title": "Onward",
      "genre_ids": [12, 16, 35, 14, 10751],
      "title": "Onward",
      "vote_average": 8,
      "overview": "In a suburban fantasy world, two teenage elf brothers embark on an extraordinary quest to discover if there is still a little magic left out there.",
      "release_date": "2020-02-29"
    },
    {
      "popularity": 137.262,
      "vote_count": 603,
      "video": false,
      "poster_path": "/6vaqTxkRnoGwjeLqyZbVuVR7Snv.jpg",
      "id": 443791,
      "adult": false,
      "backdrop_path": "/fYPiQewg7ogbzro2XcCTACSB2KC.jpg",
      "original_language": "en",
      "original_title": "Underwater",
      "genre_ids": [28, 27, 878, 53],
      "title": "Underwater",
      "vote_average": 6.5,
      "overview": "After an earthquake destroys their underwater station, six researchers must navigate two miles along the dangerous, unknown depths of the ocean floor to make it to safety in a race against time.",
      "release_date": "2020-01-08"
    },
    {
      "popularity": 133.238,
      "vote_count": 1976,
      "video": false,
      "poster_path": "/8ZX18L5m6rH5viSYpRnTSbb9eXh.jpg",
      "id": 619264,
      "adult": false,
      "backdrop_path": "/3tkDMNfM2YuIAJlvGO6rfIzAnfG.jpg",
      "original_language": "es",
      "original_title": "El hoyo",
      "genre_ids": [18, 878],
      "title": "The Platform",
      "vote_average": 7.1,
      "overview": "A mysterious place, an indescribable prison, a deep hole. An unknown number of levels. Two inmates living on each level. A descending platform containing food for all of them. An inhuman fight for survival, but also an opportunity for solidarity…",
      "release_date": "2019-11-08"
    },
    {
      "popularity": 112.567,
      "vote_count": 51,
      "video": false,
      "poster_path": "/7W0G3YECgDAfnuiHG91r8WqgIOe.jpg",
      "id": 446893,
      "adult": false,
      "backdrop_path": "/qsxhnirlp7y4Ae9bd11oYJSX59j.jpg",
      "original_language": "en",
      "original_title": "Trolls World Tour",
      "genre_ids": [12, 16, 35, 14, 10402, 10751],
      "title": "Trolls World Tour",
      "vote_average": 8.2,
      "overview": "Queen Poppy and Branch make a surprising discovery — there are other Troll worlds beyond their own, and their distinct differences create big clashes between these various tribes. When a mysterious threat puts all of the Trolls across the land in danger, Poppy, Branch, and their band of friends must embark on an epic quest to create harmony among the feuding Trolls to unite them against certain doom.",
      "release_date": "2020-03-12"
    },
    {
      "popularity": 108.364,
      "vote_count": 732,
      "video": false,
      "poster_path": "/jtrhTYB7xSrJxR1vusu99nvnZ1g.jpg",
      "id": 522627,
      "adult": false,
      "backdrop_path": "/9Qfawg9WT3cSbBXQgDRuWbYS9lj.jpg",
      "original_language": "en",
      "original_title": "The Gentlemen",
      "genre_ids": [28, 35, 80],
      "title": "The Gentlemen",
      "vote_average": 7.8,
      "overview": "American expat Mickey Pearson has built a highly profitable marijuana empire in London. When word gets out that he’s looking to cash out of the business forever it triggers plots, schemes, bribery and blackmail in an attempt to steal his domain out from under him.",
      "release_date": "2019-12-16"
    },
    {
      "popularity": 103.802,
      "vote_count": 1266,
      "video": false,
      "poster_path": "/5EufsDwXdY2CVttYOk2WtYhgKpa.jpg",
      "id": 570670,
      "adult": false,
      "backdrop_path": "/uZMZyvarQuXLRqf3xdpdMqzdtjb.jpg",
      "original_language": "en",
      "original_title": "The Invisible Man",
      "genre_ids": [27, 878, 53],
      "title": "The Invisible Man",
      "vote_average": 7.1,
      "overview": "When Cecilia's abusive ex takes his own life and leaves her his fortune, she suspects his death was a hoax. As a series of coincidences turn lethal, Cecilia works to prove that she is being hunted by someone nobody can see.",
      "release_date": "2020-02-26"
    },
    {
      "popularity": 103.088,
      "vote_count": 153,
      "video": false,
      "poster_path": "/hd5YQjsIPuLmZuvWfdv36apz8tE.jpg",
      "id": 556678,
      "adult": false,
      "backdrop_path": "/5GbkL9DDRzq3A21nR7Gkv6cFGjq.jpg",
      "original_language": "en",
      "original_title": "Emma.",
      "genre_ids": [35, 18, 10749],
      "title": "Emma.",
      "vote_average": 7.1,
      "overview": "In 1800s England, a well-meaning but selfish young woman meddles in the love lives of her friends.",
      "release_date": "2020-02-13"
    },
    {
      "popularity": 102.437,
      "vote_count": 509,
      "video": false,
      "poster_path": "/bjb1zKlyw85hYwDXzz2UM6XqjUU.jpg",
      "id": 575452,
      "adult": false,
      "backdrop_path": "/dI8UCV6SlYWmxp50WGbq94stBVA.jpg",
      "original_language": "it",
      "original_title": "Il traditore",
      "genre_ids": [80, 18],
      "title": "The Traitor",
      "vote_average": 7.8,
      "overview": "Palermo, Sicily, 1980. Mafia member Tommaso Buscetta decides to move to Brazil with his family fleeing the constant war between the different clans of the criminal organization. But when, after living several misfortunes, he is forced to return to Italy, he makes a bold decision that will change his life and the destiny of Cosa Nostra forever.",
      "release_date": "2019-05-23"
    },
    {
      "popularity": 96.339,
      "vote_count": 6077,
      "video": false,
      "poster_path": "/7IiTTgloJzvGI1TAYymCfbfl3vT.jpg",
      "id": 496243,
      "adult": false,
      "backdrop_path": "/TU9NIjwzjoKPwQHoHshkFcQUCG.jpg",
      "original_language": "ko",
      "original_title": "기생충",
      "genre_ids": [35, 18, 53],
      "title": "Parasite",
      "vote_average": 8.5,
      "overview": "All unemployed, Ki-taek's family takes peculiar interest in the wealthy and glamorous Parks for their livelihood until they get entangled in an unexpected incident.",
      "release_date": "2019-05-30"
    },
    {
      "popularity": 91.199,
      "vote_count": 2,
      "video": false,
      "poster_path": "/zqHYAIEZMAA9kOtg49RogthZFM.jpg",
      "id": 635339,
      "adult": false,
      "backdrop_path": "/uMKy30YnP8XZqqesPNSqBFc7hGL.jpg",
      "original_language": "ja",
      "original_title": "仮面ライダー 令和 ザ・ファースト・ジェネレーション",
      "genre_ids": [28, 12, 878],
      "title": "Kamen Rider Reiwa: The First Generation",
      "vote_average": 5.5,
      "overview": "The world of Kamen Rider Zero-One and the world of Kamen Rider Zi-O. The two heroes live in different worlds, but what is waiting for them after crossing time and space into a single world? Union or conflict? This winter marks a new legend in the history of Kamen Rider.",
      "release_date": "2019-12-21"
    },
    {
      "popularity": 90.966,
      "vote_count": 433,
      "video": false,
      "poster_path": "/4YJNp1cquIkX8JxFwkKNEFQ9tgr.jpg",
      "id": 522212,
      "adult": false,
      "backdrop_path": "/zNqsGEWHlXwFw8wod0HDkgrvsl8.jpg",
      "original_language": "en",
      "original_title": "Just Mercy",
      "genre_ids": [18],
      "title": "Just Mercy",
      "vote_average": 8.1,
      "overview": "The powerful true story of Harvard-educated lawyer Bryan Stevenson, who goes to Alabama to defend the disenfranchised and wrongly condemned — including Walter McMillian, a man sentenced to death despite evidence proving his innocence. Bryan fights tirelessly for Walter with the system stacked against them.",
      "release_date": "2019-12-25"
    },
    {
      "popularity": 83.831,
      "vote_count": 7,
      "video": false,
      "poster_path": "/7bjTzPQUV2KVI0HdUjf1l8lUoLF.jpg",
      "id": 571265,
      "adult": false,
      "backdrop_path": "/ApywEWLRVaHUY5QX5tUhErBD5m3.jpg",
      "original_language": "ja",
      "original_title": "デジモンアドベンチャー LAST EVOLUTION 絆",
      "genre_ids": [28, 12, 16, 53],
      "title": "Digimon Adventure: Last Evolution Kizuna",
      "vote_average": 4.8,
      "overview": "Tai is now a university student, living alone, working hard at school, and working every day, but with his future still undecided. Meanwhile, Matt and others continue to work on Digimon incidents and activities that help people with their partner Digimon. When an unprecedented phenomenon occurs, the DigiDestined discover that when they grow up, their relationship with their partner Digimon will come closer to an end.  As a countdown timer activates on the Digivice, they realize that the more they fight with their partner Digimon, the faster their bond breaks. Will they fight for others and lose their partner? The time to choose and decide is approaching fast. There is a short time before “chosen children” will become adults. This is the last adventure of Tai and Agumon.",
      "release_date": "2020-02-21"
    },
    {
      "popularity": 81.333,
      "vote_count": 4066,
      "video": false,
      "poster_path": "/AuGiPiGMYMkSosOJ3BQjDEAiwtO.jpg",
      "id": 530915,
      "adult": false,
      "backdrop_path": "/2lBOQK06tltt8SQaswgb8d657Mv.jpg",
      "original_language": "en",
      "original_title": "1917",
      "genre_ids": [28, 18, 53, 10752],
      "title": "1917",
      "vote_average": 7.9,
      "overview": "At the height of the First World War, two young British soldiers must cross enemy territory and deliver a message that will stop a deadly attack on hundreds of soldiers.",
      "release_date": "2019-12-25"
    },
    {
      "popularity": 78.951,
      "vote_count": 383,
      "video": false,
      "poster_path": "/rmflsMjk4lxx2foNUtd1OKWv6vB.jpg",
      "id": 514847,
      "adult": false,
      "backdrop_path": "/qfQ78ZKiouoM2yhAnfNblp9ijQE.jpg",
      "original_language": "en",
      "original_title": "The Hunt",
      "genre_ids": [28, 27, 53],
      "title": "The Hunt",
      "vote_average": 6.8,
      "overview": "Twelve strangers wake up in a clearing. They don't know where they are—or how they got there. In the shadow of a dark internet conspiracy theory, ruthless elitists gather at a remote location to hunt humans for sport. But their master plan is about to be derailed when one of the hunted turns the tables on her pursuers.",
      "release_date": "2020-03-11"
    },
    {
      "popularity": 78.164,
      "vote_count": 1101,
      "video": false,
      "poster_path": "/xnjvwfDulnOCy8qtYX0iqydmMhk.jpg",
      "id": 448119,
      "adult": false,
      "backdrop_path": "/xcUf6yIheo78btFqihlRLftdR3M.jpg",
      "original_language": "en",
      "original_title": "Dolittle",
      "genre_ids": [12, 35, 14, 10751],
      "title": "Dolittle",
      "vote_average": 6.8,
      "overview": "After losing his wife seven years earlier, the eccentric Dr. John Dolittle, famed doctor and veterinarian of Queen Victoria’s England, hermits himself away behind the high walls of Dolittle Manor with only his menagerie of exotic animals for company. But when the young queen falls gravely ill, a reluctant Dolittle is forced to set sail on an epic adventure to a mythical island in search of a cure, regaining his wit and courage as he crosses old adversaries and discovers wondrous creatures.",
      "release_date": "2020-01-01"
    },
    {
      "popularity": 75.405,
      "vote_count": 409,
      "video": false,
      "poster_path": "/33VdppGbeNxICrFUtW2WpGHvfYc.jpg",
      "id": 481848,
      "adult": false,
      "backdrop_path": "/yFRpUmsreYO5Bc0HVBTsJsHIIox.jpg",
      "original_language": "en",
      "original_title": "The Call of the Wild",
      "genre_ids": [12, 18, 10751],
      "title": "The Call of the Wild",
      "vote_average": 6.8,
      "overview": "Buck is a big-hearted dog whose blissful domestic life is turned upside down when he is suddenly uprooted from his California home and transplanted to the exotic wilds of the Yukon during the Gold Rush of the 1890s. As the newest rookie on a mail delivery dog sled team—and later its leader—Buck experiences the adventure of a lifetime, ultimately finding his true place in the world and becoming his own master.",
      "release_date": "2020-02-19"
    },
    {
      "popularity": 66.191,
      "vote_count": 25,
      "video": false,
      "poster_path": "/n2C6jRK9PtPIs99RQhKtqGlsnsO.jpg",
      "id": 592834,
      "adult": false,
      "backdrop_path": "/yalJdTsb6EcDX5devj2ltWXuceO.jpg",
      "original_language": "en",
      "original_title": "My Spy",
      "genre_ids": [28, 35, 10751],
      "title": "My Spy",
      "vote_average": 7,
      "overview": "A hardened CIA operative finds himself at the mercy of a precocious 9-year-old girl, having been sent undercover to surveil her family.",
      "release_date": "2020-02-27"
    },
    {
      "popularity": 65.733,
      "vote_count": 219,
      "video": false,
      "poster_path": "/cuuI1UVwnoyDoN691Z0bYZrOezx.jpg",
      "id": 555974,
      "adult": false,
      "backdrop_path": "/rpGYHowXtjw37UxdwO1ZcK5E8IN.jpg",
      "original_language": "en",
      "original_title": "Brahms: The Boy II",
      "genre_ids": [27, 9648, 53],
      "title": "Brahms: The Boy II",
      "vote_average": 6.4,
      "overview": "After a family moves into the Heelshire Mansion, their young son soon makes friends with a life-like doll called Brahms.",
      "release_date": "2020-02-20"
    }
  ],
  "page": 1,
  "total_results": 1035,
  "dates": {
    "maximum": "2020-04-14",
    "minimum": "2020-02-26"
  },
  "total_pages": 52
}
